Processor.vcd
$date
	Tue Jan  2 15:45:14 2018
$end
$version
	Icarus Verilog
$end
$timescale
	1ns
$end
$scope module Test_processor $end
$scope module P $end
$var wire 32 ! AluResult [31:0] $end
$var wire 5 " AluSignal [4:0] $end
$var wire 32 # BranchPC [31:0] $end
$var wire 32 $ BranchTarget [31:0] $end
$var wire 1 % Clk $end
$var wire 32 & D1 [31:0] $end
$var wire 32 ' D2 [31:0] $end
$var wire 32 ( Dm1 [31:0] $end
$var wire 32 ) Dm2 [31:0] $end
$var wire 2 * Flags [1:0] $end
$var wire 1 + I $end
$var wire 32 , Immx [31:0] $end
$var wire 32 - Instruction [31:0] $end
$var wire 1 . IsBeq $end
$var wire 1 / IsBgt $end
$var wire 1 0 IsBranchTaken $end
$var wire 1 1 IsCall $end
$var wire 1 2 IsImmediate $end
$var wire 1 3 IsLd $end
$var wire 1 4 IsRet $end
$var wire 1 5 IsSt $end
$var wire 1 6 IsUBranch $end
$var wire 1 7 IsWb $end
$var wire 32 8 LdResult [31:0] $end
$var wire 32 9 Op1 [31:0] $end
$var wire 32 : Op2 [31:0] $end
$var wire 5 ; Opcode [4:0] $end
$var wire 4 < Rd [3:0] $end
$var wire 32 = pc_current [31:0] $end
$var reg 32 > A [31:0] $end
$var reg 4 ? A1 [3:0] $end
$var reg 4 @ A2 [3:0] $end
$var reg 4 A A3 [3:0] $end
$var reg 32 B Am1 [31:0] $end
$var reg 32 C Am2 [31:0] $end
$var reg 32 D B [31:0] $end
$var reg 32 E D3 [31:0] $end
$var reg 32 F Dm3 [31:0] $end
$var reg 32 G PC [31:0] $end
$var reg 1 H RW $end
$var reg 1 I Reset $end
$scope module IF1 $end
$var wire 32 J BranchPC [31:0] $end
$var wire 1 % Clk $end
$var wire 1 0 IsBranchTaken $end
$var wire 32 K PC [31:0] $end
$var reg 32 L Instruction [31:0] $end
$var integer 32 M ind [31:0] $end
$var reg 32 N pc_current [31:0] $end
$var reg 32 O pc_temp [31:0] $end
$upscope $end
$scope module OF1 $end
$var wire 32 P Instruction [31:0] $end
$var wire 1 4 IsRet $end
$var wire 1 5 IsSt $end
$var wire 32 Q pc_current [31:0] $end
$var reg 32 R BranchTarget [31:0] $end
$var reg 1 S I $end
$var reg 16 T Imm_temp [15:0] $end
$var reg 32 U Immx [31:0] $end
$var reg 32 V Op1 [31:0] $end
$var reg 32 W Op2 [31:0] $end
$var reg 5 X Opcode [4:0] $end
$var reg 4 Y Rd [3:0] $end
$var reg 27 Z branch_temp [26:0] $end
$upscope $end
$scope module EX1 $end
$var wire 5 [ AluSignal [4:0] $end
$var wire 32 \ BranchTarget [31:0] $end
$var wire 32 ] Immx [31:0] $end
$var wire 1 . IsBeq $end
$var wire 1 / IsBgt $end
$var wire 1 2 IsImmediate $end
$var wire 1 4 IsRet $end
$var wire 1 6 IsUBranch $end
$var wire 32 ^ Op1 [31:0] $end
$var wire 32 _ Op2 [31:0] $end
$var reg 32 ` AluResult [31:0] $end
$var reg 32 a BranchPC [31:0] $end
$var reg 1 b IsBranchTaken $end
$var reg 1 c w1 $end
$var reg 1 d w2 $end
$upscope $end
$scope module MA1 $end
$var wire 32 e AluResult [31:0] $end
$var wire 1 3 IsLd $end
$var wire 1 5 IsSt $end
$var wire 32 f Op2 [31:0] $end
$var reg 32 g LdResult [31:0] $end
$upscope $end
$scope module WB1 $end
$var wire 32 h AluResult [31:0] $end
$var wire 1 % Clk $end
$var wire 1 1 IsCall $end
$var wire 1 3 IsLd $end
$var wire 1 7 IsWb $end
$var wire 32 i LdResult [31:0] $end
$var wire 4 j Rd [3:0] $end
$var wire 32 k pc_current [31:0] $end
$upscope $end
$scope module C1 $end
$var wire 1 + I $end
$var wire 5 l Opcode [4:0] $end
$var reg 5 m AluSignal [4:0] $end
$var reg 1 n IsBeq $end
$var reg 1 o IsBgt $end
$var reg 1 p IsCall $end
$var reg 1 q IsImmediate $end
$var reg 1 r IsLd $end
$var reg 1 s IsRet $end
$var reg 1 t IsSt $end
$var reg 1 u IsUBranch $end
$var reg 1 v IsWb $end
$upscope $end
$scope module RF1 $end
$var wire 4 w A1 [3:0] $end
$var wire 4 x A2 [3:0] $end
$var wire 4 y A3 [3:0] $end
$var wire 1 % Clk $end
$var wire 32 z D3 [31:0] $end
$var wire 1 7 IsWb $end
$var wire 1 { Reset $end
$var reg 32 | D1 [31:0] $end
$var reg 32 } D2 [31:0] $end
$var reg 16 ~ ind [15:0] $end
$upscope $end
$scope module M1 $end
$var wire 32 !" Am1 [31:0] $end
$var wire 32 "" Am2 [31:0] $end
$var wire 32 #" Dm3 [31:0] $end
$var wire 1 $" RW $end
$var reg 32 %" Dm1 [31:0] $end
$var reg 32 &" Dm2 [31:0] $end
$var reg 32 '" a1 [31:0] $end
$var reg 32 (" a2 [31:0] $end
$var integer 32 )" ind [31:0] $end
$upscope $end
$scope module ALU1 $end
$var wire 32 *" A [31:0] $end
$var wire 32 +" A_signed [31:0] $end
$var wire 5 ," AluSignal [4:0] $end
$var wire 32 -" B [31:0] $end
$var reg 32 ." AluResult [31:0] $end
$var reg 2 /" Flags [1:0] $end
$upscope $end
$upscope $end
$upscope $end
$enddefinitions $end
#0
$dumpvars
bx /"
bx ."
bx -"
bx ,"
bx +"
bx *"
bx )"
bx ("
bx '"
bx &"
bx %"
x$"
bx #"
bx ""
bx !"
b10000 ~
bx }
bx |
1{
bx z
bx y
bx x
bx w
xv
xu
xt
xs
xr
xq
xp
xo
xn
bx m
bx l
bx k
bx j
bx i
bx h
bx g
bx f
bx e
xd
xc
xb
bx a
bx `
bx _
bx ^
bx ]
bx \
bx [
bx Z
bx Y
bx X
bx W
bx V
bx U
bx T
xS
bx R
bx Q
bx P
bx O
bx N
b0 M
bx L
b0 K
bx J
1I
xH
b0 G
bx F
bx E
bx D
bx C
bx B
bx A
bx @
bx ?
bx >
bx =
bx <
bx ;
bx :
bx 9
bx 8
x7
x6
x5
x4
x3
x2
x1
x0
x/
x.
bx -
bx ,
x+
bx *
bx )
bx (
bx '
bx &
1%
bx $
bx #
bx "
bx !
$end
#2
0I
0{
#5
b10 `
b10 !
b10 e
b10 h
b0 >
b0 +"
b0 *"
b0 W
b0 :
b0 _
b0 f
b0 V
b0 9
b0 ^
b10 ."
b0 }
b0 '
b0 |
b0 &
b10 D
b10 -"
0d
0c
b1000000000000000000001000 a
b1000000000000000000001000 #
b1000000000000000000001000 J
0b
00
0o
0/
0n
0.
0p
01
0u
06
0s
04
0r
03
0t
05
1v
17
b1001 m
b1001 "
b1001 [
b1001 ,"
1q
12
b0 @
b0 x
b0 ?
b0 w
b1000000000000000000001000 R
b1000000000000000000001000 $
b1000000000000000000001000 \
b10 U
b10 ,
b10 ]
b10 T
1S
1+
b1 Y
b1 <
b1 j
b1001 X
b1001 ;
b1001 l
b1000000000000000000001000 Z
b100 M
b1001100010000000000000000000010 L
b1001100010000000000000000000010 -
b1001100010000000000000000000010 P
b0 N
b0 =
b0 Q
b0 k
b100 O
0%
#6
b10 E
b10 z
b1 A
b1 y
#10
1%
#15
b110 `
b110 ."
b110 !
b110 e
b110 h
b110 D
b110 -"
b10000000000000000000011100 a
b10000000000000000000011100 #
b10000000000000000000011100 J
b10000000000000000000011100 R
b10000000000000000000011100 $
b10000000000000000000011100 \
b110 U
b110 ,
b110 ]
b110 T
b10 Y
b10 <
b10 j
b10000000000000000000011000 Z
b100 N
b100 =
b100 Q
b100 k
b1000 O
b1001100100000000000000000000110 L
b1001100100000000000000000000110 -
b1001100100000000000000000000110 P
b100 M
0%
#16
b110 E
b110 z
b10 A
b10 y
#20
1%
#25
b110 >
b110 +"
b110 *"
b10 W
b10 :
b10 _
b10 f
b110 V
b110 9
b110 ^
b10 /"
b10 *
b10 }
b10 '
b110 |
b110 &
b10 D
b10 -"
b1000010000000000001000 a
b1000010000000000001000 #
b1000010000000000001000 J
0v
07
b101 m
b101 "
b101 [
b101 ,"
0q
02
b1 @
b1 x
b10 ?
b10 w
b1000010000000000001000 R
b1000010000000000001000 $
b1000010000000000001000 \
b100000000000000 T
0S
0+
b0 Y
b0 <
b0 j
b101 X
b101 ;
b101 l
b1000010000000000000000 Z
b1000 N
b1000 =
b1000 Q
b1000 k
b1100 O
b101000000010000100000000000000 L
b101000000010000100000000000000 -
b101000000010000100000000000000 P
b100 M
0%
#30
1%
#35
b0 D
b0 -"
b0 >
b0 +"
b0 *"
b0 W
b0 :
b0 _
b0 f
b0 V
b0 9
b0 ^
b0 }
b0 '
b0 |
b0 &
1b
10
1d
b100100 a
b100100 #
b100100 J
1o
1/
b1101 m
b1101 "
b1101 [
b1101 ,"
b0 @
b0 x
b0 ?
b0 w
b100100 R
b100100 $
b100100 \
b110 T
b10001 X
b10001 ;
b10001 l
b11000 Z
b1100 N
b1100 =
b1100 Q
b1100 k
b100100 O
b10001000000000000000000000000110 L
b10001000000000000000000000000110 -
b10001000000000000000000000000110 P
b100 M
0%
#40
1%
#45
b10 `
b10 D
b10 -"
b10 W
b10 :
b10 _
b10 f
b10 ."
b10 !
b10 e
b10 h
b10 }
b10 '
0d
b11111100000000010000000000100100 a
b11111100000000010000000000100100 #
b11111100000000010000000000100100 J
0b
00
0o
0/
1v
17
b1001 m
b1001 "
b1001 [
b1001 ,"
b1 @
b1 x
b11111100000000010000000000100100 R
b11111100000000010000000000100100 $
b11111100000000010000000000100100 \
b100000000000000 T
b100 Y
b100 <
b100 j
b1001 X
b1001 ;
b1001 l
b100000000010000000000000000 Z
b100100 N
b100100 =
b100100 Q
b100100 k
b101000 O
b1001001000000000100000000000000 L
b1001001000000000100000000000000 -
b1001001000000000100000000000000 P
b100 M
0%
#46
b10 E
b10 z
b100 A
b100 y
#50
1%
#55
b110 `
b110 ."
b110 !
b110 e
b110 h
b110 D
b110 -"
b110 W
b110 :
b110 _
b110 f
b110 }
b110 '
b1000000100000000000101000 a
b1000000100000000000101000 #
b1000000100000000000101000 J
b10 @
b10 x
b1000000100000000000101000 R
b1000000100000000000101000 $
b1000000100000000000101000 \
b1000000000000000 T
b1 Y
b1 <
b1 j
b1000000100000000000000000 Z
b101000 N
b101000 =
b101000 Q
b101000 k
b1001000010000001000000000000000 -
b1001000010000001000000000000000 P
b101100 O
b1001000010000001000000000000000 L
b100 M
0%
#56
b110 E
b110 z
b1 A
b1 y
#60
1%
#65
b10 `
b10 ."
b10 !
b10 e
b10 h
b10 D
b10 -"
b10 W
b10 :
b10 _
b10 f
b10 }
b10 '
b10000001000000000000101100 a
b10000001000000000000101100 #
b10000001000000000000101100 J
b100 @
b100 x
b10000001000000000000101100 R
b10000001000000000000101100 $
b10000001000000000000101100 \
b0 T
b10 Y
b10 <
b10 j
b10000001000000000000000000 Z
b101100 N
b101100 =
b101100 Q
b101100 k
b1001000100000010000000000000000 -
b1001000100000010000000000000000 P
b110000 O
b1001000100000010000000000000000 L
b100 M
0%
#66
b10 E
b10 z
b10 A
b10 y
#70
1%
#75
b0 W
b0 :
b0 _
b0 f
b0 }
b0 '
b110 D
b110 -"
1b
10
b10000 a
b10000 #
b10000 J
0v
07
1u
16
b1101 m
b1101 "
b1101 [
b1101 ,"
1q
12
b1111 @
b1111 x
b1111 ?
b1111 w
b10000 R
b10000 $
b10000 \
b1111111111111000 T
1S
1+
b1111 Y
b1111 <
b1111 j
b10010 X
b10010 ;
b10010 l
b111111111111111111111100000 Z
b110000 N
b110000 =
b110000 Q
b110000 k
b10000 O
b10010111111111111111111111111000 L
b10010111111111111111111111111000 -
b10010111111111111111111111111000 P
b100 M
0%
#80
1%
#85
b0 `
b110 >
b110 +"
b110 *"
b10 W
b10 :
b10 _
b10 f
b110 V
b110 9
b110 ^
b0 ."
b0 !
b0 e
b0 h
b10 }
b10 '
b110 |
b110 &
b10 D
b10 -"
b11111101000100100000000000010000 a
b11111101000100100000000000010000 #
b11111101000100100000000000010000 J
0b
00
0u
06
1v
17
b100 m
b100 "
b100 [
b100 ,"
0q
02
b10 @
b10 x
b1 ?
b1 w
b11111101000100100000000000010000 R
b11111101000100100000000000010000 $
b11111101000100100000000000010000 \
b1000000000000000 T
0S
0+
b101 Y
b101 <
b101 j
b100 X
b100 ;
b100 l
b101000100100000000000000000 Z
b10000 N
b10000 =
b10000 Q
b10000 k
b10100 O
b100001010001001000000000000000 L
b100001010001001000000000000000 -
b100001010001001000000000000000 P
b100 M
0%
#86
b0 E
b0 z
b101 A
b101 y
#90
1%
#95
b1 *
b0 >
b0 +"
b0 *"
b0 W
b0 :
b0 _
b0 f
b0 V
b0 9
b0 ^
b1 /"
b0 }
b0 '
b0 |
b0 &
b0 D
b0 -"
b10100000000000000010100 a
b10100000000000000010100 #
b10100000000000000010100 J
0v
07
b101 m
b101 "
b101 [
b101 ,"
1q
12
b0 @
b0 x
b101 ?
b101 w
b10100000000000000010100 R
b10100000000000000010100 $
b10100000000000000010100 \
b0 U
b0 ,
b0 ]
b0 T
1S
1+
b0 Y
b0 <
b0 j
b101 X
b101 ;
b101 l
b10100000000000000000000 Z
b10100 N
b10100 =
b10100 Q
b10100 k
b101100000101000000000000000000 -
b101100000101000000000000000000 P
b11000 O
b101100000101000000000000000000 L
b100 M
0%
#100
1%
#105
1b
10
1c
b110100 a
b110100 #
b110100 J
1n
1.
b1101 m
b1101 "
b1101 [
b1101 ,"
0q
02
b0 ?
b0 w
b110100 R
b110100 $
b110100 \
b111 T
0S
0+
b10000 X
b10000 ;
b10000 l
b11100 Z
b11000 N
b11000 =
b11000 Q
b11000 k
b110100 O
b10000000000000000000000000000111 L
b10000000000000000000000000000111 -
b10000000000000000000000000000111 P
b100 M
0%
#110
1%
#115
b10 `
b10 ."
b10 !
b10 e
b10 h
b10 D
b10 -"
b10 W
b10 :
b10 _
b10 f
b10 }
b10 '
0c
b100000000000110100 a
b100000000000110100 #
b100000000000110100 J
0b
00
0n
0.
1v
17
b1001 m
b1001 "
b1001 [
b1001 ,"
b10 @
b10 x
b100000000000110100 R
b100000000000110100 $
b100000000000110100 \
b1000000000000000 T
b1001 X
b1001 ;
b1001 l
b100000000000000000 Z
b110100 N
b110100 =
b110100 Q
b110100 k
b111000 O
b1001000000000001000000000000000 L
b1001000000000001000000000000000 -
b1001000000000001000000000000000 P
b100 M
0%
#116
b10 E
b10 z
b0 A
b0 y
#120
1%
#125
bx `
bx ."
bx !
bx e
bx h
bx D
bx -"
bx W
bx :
bx _
bx f
bx }
bx '
bx >
bx +"
bx *"
bx a
bx #
bx J
bx V
bx 9
bx ^
bx @
bx x
bx ?
bx w
bx R
bx $
bx \
bx T
xS
x+
bx Y
bx <
bx j
bx X
bx ;
bx l
bx00 Z
bx |
bx &
b111000 N
b111000 =
b111000 Q
b111000 k
b111100 O
bx L
bx -
bx P
b100 M
0%
#126
bx E
bx z
bx A
bx y
#130
1%
#135
bx R
bx $
bx \
bx00 Z
b111100 N
b111100 =
b111100 Q
b111100 k
b1000000 O
bx L
b100 M
0%
#140
1%
#145
bx R
bx $
bx \
bx00 Z
b1000000 N
b1000000 =
b1000000 Q
b1000000 k
b1000100 O
bx L
b100 M
0%
#150
1%
#155
bx R
bx $
bx \
bx00 Z
b1000100 N
b1000100 =
b1000100 Q
b1000100 k
b1001000 O
bx L
b100 M
0%
#160
1%
#165
bx R
bx $
bx \
bx00 Z
b1001000 N
b1001000 =
b1001000 Q
b1001000 k
b1001100 O
bx L
b100 M
0%
#170
1%
#175
bx R
bx $
bx \
bx00 Z
b1001100 N
b1001100 =
b1001100 Q
b1001100 k
b1010000 O
bx L
b100 M
0%
#180
1%
#185
bx R
bx $
bx \
bx00 Z
b1010000 N
b1010000 =
b1010000 Q
b1010000 k
b1010100 O
bx L
b100 M
0%
#190
1%
#195
bx R
bx $
bx \
bx00 Z
b1010100 N
b1010100 =
b1010100 Q
b1010100 k
b1011000 O
bx L
b100 M
0%
#200
1%
#205
bx R
bx $
bx \
bx00 Z
b1011000 N
b1011000 =
b1011000 Q
b1011000 k
b1011100 O
bx L
b100 M
0%
#210
1%
#215
bx R
bx $
bx \
bx00 Z
b1011100 N
b1011100 =
b1011100 Q
b1011100 k
b1100000 O
bx L
b100 M
0%
#220
1%
#225
bx R
bx $
bx \
bx00 Z
b1100000 N
b1100000 =
b1100000 Q
b1100000 k
b1100100 O
bx L
b100 M
0%
#230
1%
#235
bx R
bx $
bx \
bx00 Z
b1100100 N
b1100100 =
b1100100 Q
b1100100 k
b1101000 O
bx L
b100 M
0%
#240
1%
#245
bx R
bx $
bx \
bx00 Z
b1101000 N
b1101000 =
b1101000 Q
b1101000 k
b1101100 O
bx L
b100 M
0%
#250
1%
#255
bx R
bx $
bx \
bx00 Z
b1101100 N
b1101100 =
b1101100 Q
b1101100 k
b1110000 O
bx L
b100 M
0%
#260
1%
#265
bx R
bx $
bx \
bx00 Z
b1110000 N
b1110000 =
b1110000 Q
b1110000 k
b1110100 O
bx L
b100 M
0%
#270
1%
#275
bx R
bx $
bx \
bx00 Z
b1110100 N
b1110100 =
b1110100 Q
b1110100 k
b1111000 O
bx L
b100 M
0%
#280
1%
#285
bx R
bx $
bx \
bx00 Z
b1111000 N
b1111000 =
b1111000 Q
b1111000 k
b1111100 O
bx L
b100 M
0%
#290
1%
#295
bx R
bx $
bx \
bx00 Z
b1111100 N
b1111100 =
b1111100 Q
b1111100 k
b10000000 O
bx L
b100 M
0%
#300
1%
#305
bx R
bx $
bx \
bx00 Z
b10000000 N
b10000000 =
b10000000 Q
b10000000 k
b10000100 O
bx L
b100 M
0%
#310
1%
#315
bx R
bx $
bx \
bx00 Z
b10000100 N
b10000100 =
b10000100 Q
b10000100 k
b10001000 O
bx L
b100 M
0%
#320
1%
#325
bx R
bx $
bx \
bx00 Z
b10001000 N
b10001000 =
b10001000 Q
b10001000 k
b10001100 O
bx L
b100 M
0%
#330
1%
#335
bx R
bx $
bx \
bx00 Z
b10001100 N
b10001100 =
b10001100 Q
b10001100 k
b10010000 O
bx L
b100 M
0%
#340
1%
#345
bx R
bx $
bx \
bx00 Z
b10010000 N
b10010000 =
b10010000 Q
b10010000 k
b10010100 O
bx L
b100 M
0%
#350
1%
#355
bx R
bx $
bx \
bx00 Z
b10010100 N
b10010100 =
b10010100 Q
b10010100 k
b10011000 O
bx L
b100 M
0%
#360
1%
#365
bx R
bx $
bx \
bx00 Z
b10011000 N
b10011000 =
b10011000 Q
b10011000 k
b10011100 O
bx L
b100 M
0%
#370
1%
#375
bx R
bx $
bx \
bx00 Z
b10011100 N
b10011100 =
b10011100 Q
b10011100 k
b10100000 O
bx L
b100 M
0%
#380
1%
#385
bx R
bx $
bx \
bx00 Z
b10100000 N
b10100000 =
b10100000 Q
b10100000 k
b10100100 O
bx L
b100 M
0%
#390
1%
#395
bx R
bx $
bx \
bx00 Z
b10100100 N
b10100100 =
b10100100 Q
b10100100 k
b10101000 O
bx L
b100 M
0%
#400
1%
#405
bx R
bx $
bx \
bx00 Z
b10101000 N
b10101000 =
b10101000 Q
b10101000 k
b10101100 O
bx L
b100 M
0%
#410
1%
#415
bx R
bx $
bx \
bx00 Z
b10101100 N
b10101100 =
b10101100 Q
b10101100 k
b10110000 O
bx L
b100 M
0%
#420
1%
#425
bx R
bx $
bx \
bx00 Z
b10110000 N
b10110000 =
b10110000 Q
b10110000 k
b10110100 O
bx L
b100 M
0%
#430
1%
#435
bx R
bx $
bx \
bx00 Z
b10110100 N
b10110100 =
b10110100 Q
b10110100 k
b10111000 O
bx L
b100 M
0%
#440
1%
#445
bx R
bx $
bx \
bx00 Z
b10111000 N
b10111000 =
b10111000 Q
b10111000 k
b10111100 O
bx L
b100 M
0%
#450
1%
#455
bx R
bx $
bx \
bx00 Z
b10111100 N
b10111100 =
b10111100 Q
b10111100 k
b11000000 O
bx L
b100 M
0%
#460
1%
#465
bx R
bx $
bx \
bx00 Z
b11000000 N
b11000000 =
b11000000 Q
b11000000 k
b11000100 O
bx L
b100 M
0%
#470
1%
#475
bx R
bx $
bx \
bx00 Z
b11000100 N
b11000100 =
b11000100 Q
b11000100 k
b11001000 O
bx L
b100 M
0%
#480
1%
#485
bx R
bx $
bx \
bx00 Z
b11001000 N
b11001000 =
b11001000 Q
b11001000 k
b11001100 O
bx L
b100 M
0%
#490
1%
#495
bx R
bx $
bx \
bx00 Z
b11001100 N
b11001100 =
b11001100 Q
b11001100 k
b11010000 O
bx L
b100 M
0%
#500
1%
#505
bx R
bx $
bx \
bx00 Z
b11010000 N
b11010000 =
b11010000 Q
b11010000 k
b11010100 O
bx L
b100 M
0%
#510
1%
#515
bx R
bx $
bx \
bx00 Z
b11010100 N
b11010100 =
b11010100 Q
b11010100 k
b11011000 O
bx L
b100 M
0%
#520
1%
#525
bx R
bx $
bx \
bx00 Z
b11011000 N
b11011000 =
b11011000 Q
b11011000 k
b11011100 O
bx L
b100 M
0%
#530
1%
#535
bx R
bx $
bx \
bx00 Z
b11011100 N
b11011100 =
b11011100 Q
b11011100 k
b11100000 O
bx L
b100 M
0%
#540
1%
#545
bx R
bx $
bx \
bx00 Z
b11100000 N
b11100000 =
b11100000 Q
b11100000 k
b11100100 O
bx L
b100 M
0%
#550
1%
#555
bx R
bx $
bx \
bx00 Z
b11100100 N
b11100100 =
b11100100 Q
b11100100 k
b11101000 O
bx L
b100 M
0%
#560
1%
#565
bx R
bx $
bx \
bx00 Z
b11101000 N
b11101000 =
b11101000 Q
b11101000 k
b11101100 O
bx L
b100 M
0%
#570
1%
#575
bx R
bx $
bx \
bx00 Z
b11101100 N
b11101100 =
b11101100 Q
b11101100 k
b11110000 O
bx L
b100 M
0%
#580
1%
#585
bx R
bx $
bx \
bx00 Z
b11110000 N
b11110000 =
b11110000 Q
b11110000 k
b11110100 O
bx L
b100 M
0%
#590
1%
#595
bx R
bx $
bx \
bx00 Z
b11110100 N
b11110100 =
b11110100 Q
b11110100 k
b11111000 O
bx L
b100 M
0%
#600
1%
#605
bx R
bx $
bx \
bx00 Z
b11111000 N
b11111000 =
b11111000 Q
b11111000 k
b11111100 O
bx L
b100 M
0%
#610
1%
#615
bx R
bx $
bx \
bx00 Z
b11111100 N
b11111100 =
b11111100 Q
b11111100 k
b100000000 O
bx L
b100 M
0%
#620
1%
#625
bx R
bx $
bx \
bx00 Z
b100000000 N
b100000000 =
b100000000 Q
b100000000 k
b100000100 O
bx L
b100 M
0%
#630
1%
#635
bx R
bx $
bx \
bx00 Z
b100000100 N
b100000100 =
b100000100 Q
b100000100 k
b100001000 O
bx L
b100 M
0%
#640
1%
#645
bx R
bx $
bx \
bx00 Z
b100001000 N
b100001000 =
b100001000 Q
b100001000 k
b100001100 O
bx L
b100 M
0%
#650
1%
#655
bx R
bx $
bx \
bx00 Z
b100001100 N
b100001100 =
b100001100 Q
b100001100 k
b100010000 O
bx L
b100 M
0%
#660
1%
#665
bx R
bx $
bx \
bx00 Z
b100010000 N
b100010000 =
b100010000 Q
b100010000 k
b100010100 O
bx L
b100 M
0%
#670
1%
#675
bx R
bx $
bx \
bx00 Z
b100010100 N
b100010100 =
b100010100 Q
b100010100 k
b100011000 O
bx L
b100 M
0%
#680
1%
#685
bx R
bx $
bx \
bx00 Z
b100011000 N
b100011000 =
b100011000 Q
b100011000 k
b100011100 O
bx L
b100 M
0%
#690
1%
#695
bx R
bx $
bx \
bx00 Z
b100011100 N
b100011100 =
b100011100 Q
b100011100 k
b100100000 O
bx L
b100 M
0%
#700
1%
#705
bx R
bx $
bx \
bx00 Z
b100100000 N
b100100000 =
b100100000 Q
b100100000 k
b100100100 O
bx L
b100 M
0%
#710
1%
#715
bx R
bx $
bx \
bx00 Z
b100100100 N
b100100100 =
b100100100 Q
b100100100 k
b100101000 O
bx L
b100 M
0%
#720
1%
#725
bx R
bx $
bx \
bx00 Z
b100101000 N
b100101000 =
b100101000 Q
b100101000 k
b100101100 O
bx L
b100 M
0%
#730
1%
#735
bx R
bx $
bx \
bx00 Z
b100101100 N
b100101100 =
b100101100 Q
b100101100 k
b100110000 O
bx L
b100 M
0%
#740
1%
#745
bx R
bx $
bx \
bx00 Z
b100110000 N
b100110000 =
b100110000 Q
b100110000 k
b100110100 O
bx L
b100 M
0%
#750
1%
#755
bx R
bx $
bx \
bx00 Z
b100110100 N
b100110100 =
b100110100 Q
b100110100 k
b100111000 O
bx L
b100 M
0%
#760
1%
#765
bx R
bx $
bx \
bx00 Z
b100111000 N
b100111000 =
b100111000 Q
b100111000 k
b100111100 O
bx L
b100 M
0%
#770
1%
#775
bx R
bx $
bx \
bx00 Z
b100111100 N
b100111100 =
b100111100 Q
b100111100 k
b101000000 O
bx L
b100 M
0%
#780
1%
#785
bx R
bx $
bx \
bx00 Z
b101000000 N
b101000000 =
b101000000 Q
b101000000 k
b101000100 O
bx L
b100 M
0%
#790
1%
#795
bx R
bx $
bx \
bx00 Z
b101000100 N
b101000100 =
b101000100 Q
b101000100 k
b101001000 O
bx L
b100 M
0%
#800
1%
#805
bx R
bx $
bx \
bx00 Z
b101001000 N
b101001000 =
b101001000 Q
b101001000 k
b101001100 O
bx L
b100 M
0%
#810
1%
#815
bx R
bx $
bx \
bx00 Z
b101001100 N
b101001100 =
b101001100 Q
b101001100 k
b101010000 O
bx L
b100 M
0%
#820
1%
#825
bx R
bx $
bx \
bx00 Z
b101010000 N
b101010000 =
b101010000 Q
b101010000 k
b101010100 O
bx L
b100 M
0%
#830
1%
#835
bx R
bx $
bx \
bx00 Z
b101010100 N
b101010100 =
b101010100 Q
b101010100 k
b101011000 O
bx L
b100 M
0%
#840
1%
#845
bx R
bx $
bx \
bx00 Z
b101011000 N
b101011000 =
b101011000 Q
b101011000 k
b101011100 O
bx L
b100 M
0%
#850
1%
#855
bx R
bx $
bx \
bx00 Z
b101011100 N
b101011100 =
b101011100 Q
b101011100 k
b101100000 O
bx L
b100 M
0%
#860
1%
#865
bx R
bx $
bx \
bx00 Z
b101100000 N
b101100000 =
b101100000 Q
b101100000 k
b101100100 O
bx L
b100 M
0%
#870
1%
#875
bx R
bx $
bx \
bx00 Z
b101100100 N
b101100100 =
b101100100 Q
b101100100 k
b101101000 O
bx L
b100 M
0%
#880
1%
#885
bx R
bx $
bx \
bx00 Z
b101101000 N
b101101000 =
b101101000 Q
b101101000 k
b101101100 O
bx L
b100 M
0%
#890
1%
#895
bx R
bx $
bx \
bx00 Z
b101101100 N
b101101100 =
b101101100 Q
b101101100 k
b101110000 O
bx L
b100 M
0%
#900
1%
#905
bx R
bx $
bx \
bx00 Z
b101110000 N
b101110000 =
b101110000 Q
b101110000 k
b101110100 O
bx L
b100 M
0%
#910
1%
#915
bx R
bx $
bx \
bx00 Z
b101110100 N
b101110100 =
b101110100 Q
b101110100 k
b101111000 O
bx L
b100 M
0%
#920
1%
#925
bx R
bx $
bx \
bx00 Z
b101111000 N
b101111000 =
b101111000 Q
b101111000 k
b101111100 O
bx L
b100 M
0%
#930
1%
#935
bx R
bx $
bx \
bx00 Z
b101111100 N
b101111100 =
b101111100 Q
b101111100 k
b110000000 O
bx L
b100 M
0%
#940
1%
#945
bx R
bx $
bx \
bx00 Z
b110000000 N
b110000000 =
b110000000 Q
b110000000 k
b110000100 O
bx L
b100 M
0%
#950
1%
#955
bx R
bx $
bx \
bx00 Z
b110000100 N
b110000100 =
b110000100 Q
b110000100 k
b110001000 O
bx L
b100 M
0%
#960
1%
#965
bx R
bx $
bx \
bx00 Z
b110001000 N
b110001000 =
b110001000 Q
b110001000 k
b110001100 O
bx L
b100 M
0%
#970
1%
#975
bx R
bx $
bx \
bx00 Z
b110001100 N
b110001100 =
b110001100 Q
b110001100 k
b110010000 O
bx L
b100 M
0%
#980
1%
#985
bx R
bx $
bx \
bx00 Z
b110010000 N
b110010000 =
b110010000 Q
b110010000 k
b110010100 O
bx L
b100 M
0%
#990
1%
#995
bx R
bx $
bx \
bx00 Z
b110010100 N
b110010100 =
b110010100 Q
b110010100 k
b110011000 O
bx L
b100 M
0%
#1000
1%
#1005
bx R
bx $
bx \
bx00 Z
b110011000 N
b110011000 =
b110011000 Q
b110011000 k
b110011100 O
bx L
b100 M
0%
#1010
1%
#1015
bx R
bx $
bx \
bx00 Z
b110011100 N
b110011100 =
b110011100 Q
b110011100 k
b110100000 O
bx L
b100 M
0%
#1020
1%
#1025
bx R
bx $
bx \
bx00 Z
b110100000 N
b110100000 =
b110100000 Q
b110100000 k
b110100100 O
bx L
b100 M
0%
#1030
1%
#1035
bx R
bx $
bx \
bx00 Z
b110100100 N
b110100100 =
b110100100 Q
b110100100 k
b110101000 O
bx L
b100 M
0%
#1040
1%
#1045
bx R
bx $
bx \
bx00 Z
b110101000 N
b110101000 =
b110101000 Q
b110101000 k
b110101100 O
bx L
b100 M
0%
#1050
1%
#1055
bx R
bx $
bx \
bx00 Z
b110101100 N
b110101100 =
b110101100 Q
b110101100 k
b110110000 O
bx L
b100 M
0%
#1060
1%
#1065
bx R
bx $
bx \
bx00 Z
b110110000 N
b110110000 =
b110110000 Q
b110110000 k
b110110100 O
bx L
b100 M
0%
#1070
1%
#1075
bx R
bx $
bx \
bx00 Z
b110110100 N
b110110100 =
b110110100 Q
b110110100 k
b110111000 O
bx L
b100 M
0%
#1080
1%
#1085
bx R
bx $
bx \
bx00 Z
b110111000 N
b110111000 =
b110111000 Q
b110111000 k
b110111100 O
bx L
b100 M
0%
#1090
1%
#1095
bx R
bx $
bx \
bx00 Z
b110111100 N
b110111100 =
b110111100 Q
b110111100 k
b111000000 O
bx L
b100 M
0%
#1100
1%
#1105
bx R
bx $
bx \
bx00 Z
b111000000 N
b111000000 =
b111000000 Q
b111000000 k
b111000100 O
bx L
b100 M
0%
#1110
1%
#1115
bx R
bx $
bx \
bx00 Z
b111000100 N
b111000100 =
b111000100 Q
b111000100 k
b111001000 O
bx L
b100 M
0%
